<?xml version="1.0" encoding="UTF-8" standalone="no"?>
<!DOCTYPE svg PUBLIC "-//W3C//DTD SVG 1.1//EN"
 "http://www.w3.org/Graphics/SVG/1.1/DTD/svg11.dtd">
<!-- Generated by graphviz version 2.30.1 (20170916.1124)
 -->
<!-- Title: snakemake_dag Pages: 1 -->
<svg width="371pt" height="548pt"
 viewBox="0.00 0.00 371.00 548.00" xmlns="http://www.w3.org/2000/svg" xmlns:xlink="http://www.w3.org/1999/xlink">
<g id="graph0" class="graph" transform="scale(1 1) rotate(0) translate(4 544)">
<title>snakemake_dag</title>
<polygon fill="white" stroke="white" points="-4,5 -4,-544 368,-544 368,5 -4,5"/>
<!-- 0 -->
<g id="node1" class="node"><title>0</title>
<path fill="none" stroke="#d85656" stroke-width="2" d="M267,-540C267,-540 91,-540 91,-540 85,-540 79,-534 79,-528 79,-528 79,-516 79,-516 79,-510 85,-504 91,-504 91,-504 267,-504 267,-504 273,-504 279,-510 279,-516 279,-516 279,-528 279,-528 279,-534 273,-540 267,-540"/>
<text text-anchor="middle" x="179" y="-519.5" font-family="sans" font-size="10.00">Associate_regions_with_target_genes</text>
</g>
<!-- 6 -->
<g id="node7" class="node"><title>6</title>
<path fill="none" stroke="#56d8c9" stroke-width="2" d="M247.25,-468C247.25,-468 110.75,-468 110.75,-468 104.75,-468 98.75,-462 98.75,-456 98.75,-456 98.75,-444 98.75,-444 98.75,-438 104.75,-432 110.75,-432 110.75,-432 247.25,-432 247.25,-432 253.25,-432 259.25,-438 259.25,-444 259.25,-444 259.25,-456 259.25,-456 259.25,-462 253.25,-468 247.25,-468"/>
<text text-anchor="middle" x="179" y="-447.5" font-family="sans" font-size="10.00">Map_mutations_within_TFBSs</text>
</g>
<!-- 0&#45;&gt;6 -->
<g id="edge6" class="edge"><title>0&#45;&gt;6</title>
<path fill="none" stroke="grey" stroke-width="2" d="M179,-503.697C179,-495.983 179,-486.712 179,-478.112"/>
<polygon fill="grey" stroke="grey" points="182.5,-478.104 179,-468.104 175.5,-478.104 182.5,-478.104"/>
</g>
<!-- 1 -->
<g id="node2" class="node"><title>1</title>
<path fill="none" stroke="#56b1d8" stroke-width="2" d="M351.25,-180C351.25,-180 194.75,-180 194.75,-180 188.75,-180 182.75,-174 182.75,-168 182.75,-168 182.75,-156 182.75,-156 182.75,-150 188.75,-144 194.75,-144 194.75,-144 351.25,-144 351.25,-144 357.25,-144 363.25,-150 363.25,-156 363.25,-156 363.25,-168 363.25,-168 363.25,-174 357.25,-180 351.25,-180"/>
<text text-anchor="middle" x="273" y="-165" font-family="sans" font-size="10.00">GO_GSEA_enrichment_per_cohort</text>
<text text-anchor="middle" x="273" y="-154" font-family="sans" font-size="10.00">genes: PCG</text>
</g>
<!-- 8 -->
<g id="node9" class="node"><title>8</title>
<path fill="none" stroke="#d8b456" stroke-width="2" d="M329,-108C329,-108 207,-108 207,-108 201,-108 195,-102 195,-96 195,-96 195,-84 195,-84 195,-78 201,-72 207,-72 207,-72 329,-72 329,-72 335,-72 341,-78 341,-84 341,-84 341,-96 341,-96 341,-102 335,-108 329,-108"/>
<text text-anchor="middle" x="268" y="-87.5" font-family="sans" font-size="10.00">dysmiR_interactive_report</text>
</g>
<!-- 1&#45;&gt;8 -->
<g id="edge9" class="edge"><title>1&#45;&gt;8</title>
<path fill="none" stroke="grey" stroke-width="2" d="M271.764,-143.697C271.213,-135.983 270.551,-126.712 269.937,-118.112"/>
<polygon fill="grey" stroke="grey" points="273.425,-117.83 269.222,-108.104 266.443,-118.328 273.425,-117.83"/>
</g>
<!-- 2 -->
<g id="node3" class="node"><title>2</title>
<path fill="none" stroke="#9fd856" stroke-width="2" d="M140.25,-396C140.25,-396 55.75,-396 55.75,-396 49.75,-396 43.75,-390 43.75,-384 43.75,-384 43.75,-372 43.75,-372 43.75,-366 49.75,-360 55.75,-360 55.75,-360 140.25,-360 140.25,-360 146.25,-360 152.25,-366 152.25,-372 152.25,-372 152.25,-384 152.25,-384 152.25,-390 146.25,-396 140.25,-396"/>
<text text-anchor="middle" x="98" y="-381" font-family="sans" font-size="10.00">xseq_trans_miRNA</text>
<text text-anchor="middle" x="98" y="-370" font-family="sans" font-size="10.00">cohort: LIHC&#45;US</text>
</g>
<!-- 5 -->
<g id="node6" class="node"><title>5</title>
<path fill="none" stroke="#ced856" stroke-width="2" d="M163.25,-324C163.25,-324 20.75,-324 20.75,-324 14.75,-324 8.75,-318 8.75,-312 8.75,-312 8.75,-300 8.75,-300 8.75,-294 14.75,-288 20.75,-288 20.75,-288 163.25,-288 163.25,-288 169.25,-288 175.25,-294 175.25,-300 175.25,-300 175.25,-312 175.25,-312 175.25,-318 169.25,-324 163.25,-324"/>
<text text-anchor="middle" x="92" y="-303.5" font-family="sans" font-size="10.00">select_miRNA_and_draw_plots</text>
</g>
<!-- 2&#45;&gt;5 -->
<g id="edge5" class="edge"><title>2&#45;&gt;5</title>
<path fill="none" stroke="grey" stroke-width="2" d="M96.5169,-359.697C95.8557,-351.983 95.0611,-342.712 94.3239,-334.112"/>
<polygon fill="grey" stroke="grey" points="97.8074,-333.769 93.4661,-324.104 90.833,-334.367 97.8074,-333.769"/>
</g>
<!-- 3 -->
<g id="node4" class="node"><title>3</title>
<path fill="none" stroke="#d88556" stroke-width="2" d="M334.25,-396C334.25,-396 185.75,-396 185.75,-396 179.75,-396 173.75,-390 173.75,-384 173.75,-384 173.75,-372 173.75,-372 173.75,-366 179.75,-360 185.75,-360 185.75,-360 334.25,-360 334.25,-360 340.25,-360 346.25,-366 346.25,-372 346.25,-372 346.25,-384 346.25,-384 346.25,-390 340.25,-396 334.25,-396"/>
<text text-anchor="middle" x="260" y="-375.5" font-family="sans" font-size="10.00">Filter_TFBS_associated_to_PCGs</text>
</g>
<!-- 10 -->
<g id="node11" class="node"><title>10</title>
<path fill="none" stroke="#5682d8" stroke-width="2" d="M308.25,-324C308.25,-324 237.75,-324 237.75,-324 231.75,-324 225.75,-318 225.75,-312 225.75,-312 225.75,-300 225.75,-300 225.75,-294 231.75,-288 237.75,-288 237.75,-288 308.25,-288 308.25,-288 314.25,-288 320.25,-294 320.25,-300 320.25,-300 320.25,-312 320.25,-312 320.25,-318 314.25,-324 308.25,-324"/>
<text text-anchor="middle" x="273" y="-309" font-family="sans" font-size="10.00">xseq_trans_PCG</text>
<text text-anchor="middle" x="273" y="-298" font-family="sans" font-size="10.00">cohort: LIHC&#45;US</text>
</g>
<!-- 3&#45;&gt;10 -->
<g id="edge11" class="edge"><title>3&#45;&gt;10</title>
<path fill="none" stroke="grey" stroke-width="2" d="M263.213,-359.697C264.646,-351.983 266.368,-342.712 267.965,-334.112"/>
<polygon fill="grey" stroke="grey" points="271.439,-334.575 269.823,-324.104 264.556,-333.297 271.439,-334.575"/>
</g>
<!-- 4 -->
<g id="node5" class="node"><title>4</title>
<path fill="none" stroke="#56b1d8" stroke-width="2" d="M168.25,-252C168.25,-252 11.75,-252 11.75,-252 5.75,-252 -0.25,-246 -0.25,-240 -0.25,-240 -0.25,-228 -0.25,-228 -0.25,-222 5.75,-216 11.75,-216 11.75,-216 168.25,-216 168.25,-216 174.25,-216 180.25,-222 180.25,-228 180.25,-228 180.25,-240 180.25,-240 180.25,-246 174.25,-252 168.25,-252"/>
<text text-anchor="middle" x="90" y="-237" font-family="sans" font-size="10.00">GO_GSEA_enrichment_per_cohort</text>
<text text-anchor="middle" x="90" y="-226" font-family="sans" font-size="10.00">genes: miRNA</text>
</g>
<!-- 11 -->
<g id="node12" class="node"><title>11</title>
<path fill="none" stroke="#d8b456" stroke-width="2" d="M164,-108C164,-108 42,-108 42,-108 36,-108 30,-102 30,-96 30,-96 30,-84 30,-84 30,-78 36,-72 42,-72 42,-72 164,-72 164,-72 170,-72 176,-78 176,-84 176,-84 176,-96 176,-96 176,-102 170,-108 164,-108"/>
<text text-anchor="middle" x="103" y="-87.5" font-family="sans" font-size="10.00">dysmiR_interactive_report</text>
</g>
<!-- 4&#45;&gt;11 -->
<g id="edge12" class="edge"><title>4&#45;&gt;11</title>
<path fill="none" stroke="grey" stroke-width="2" d="M91.5681,-215.871C93.7837,-191.67 97.8539,-147.211 100.492,-118.393"/>
<polygon fill="grey" stroke="grey" points="104,-118.467 101.426,-108.189 97.0291,-117.829 104,-118.467"/>
</g>
<!-- 5&#45;&gt;4 -->
<g id="edge4" class="edge"><title>5&#45;&gt;4</title>
<path fill="none" stroke="grey" stroke-width="2" d="M91.5056,-287.697C91.2852,-279.983 91.0204,-270.712 90.7746,-262.112"/>
<polygon fill="grey" stroke="grey" points="94.273,-262 90.4887,-252.104 87.2758,-262.2 94.273,-262"/>
</g>
<!-- 6&#45;&gt;2 -->
<g id="edge2" class="edge"><title>6&#45;&gt;2</title>
<path fill="none" stroke="grey" stroke-width="2" d="M158.978,-431.697C148.874,-422.965 136.464,-412.24 125.482,-402.75"/>
<polygon fill="grey" stroke="grey" points="127.647,-399.995 117.792,-396.104 123.07,-405.291 127.647,-399.995"/>
</g>
<!-- 6&#45;&gt;3 -->
<g id="edge3" class="edge"><title>6&#45;&gt;3</title>
<path fill="none" stroke="grey" stroke-width="2" d="M199.022,-431.697C209.126,-422.965 221.536,-412.24 232.518,-402.75"/>
<polygon fill="grey" stroke="grey" points="234.93,-405.291 240.208,-396.104 230.353,-399.995 234.93,-405.291"/>
</g>
<!-- 7 -->
<g id="node8" class="node"><title>7</title>
<path fill="none" stroke="#56d89a" stroke-width="2" d="M200,-36C200,-36 170,-36 170,-36 164,-36 158,-30 158,-24 158,-24 158,-12 158,-12 158,-6 164,-0 170,-0 170,-0 200,-0 200,-0 206,-0 212,-6 212,-12 212,-12 212,-24 212,-24 212,-30 206,-36 200,-36"/>
<text text-anchor="middle" x="185" y="-15.5" font-family="sans" font-size="10.00">all</text>
</g>
<!-- 8&#45;&gt;7 -->
<g id="edge8" class="edge"><title>8&#45;&gt;7</title>
<path fill="none" stroke="grey" stroke-width="2" d="M247.483,-71.6966C237.131,-62.9655 224.414,-52.2405 213.161,-42.7503"/>
<polygon fill="grey" stroke="grey" points="215.182,-39.8759 205.281,-36.1043 210.669,-45.2269 215.182,-39.8759"/>
</g>
<!-- 9 -->
<g id="node10" class="node"><title>9</title>
<path fill="none" stroke="#70d856" stroke-width="2" d="M339.25,-252C339.25,-252 210.75,-252 210.75,-252 204.75,-252 198.75,-246 198.75,-240 198.75,-240 198.75,-228 198.75,-228 198.75,-222 204.75,-216 210.75,-216 210.75,-216 339.25,-216 339.25,-216 345.25,-216 351.25,-222 351.25,-228 351.25,-228 351.25,-240 351.25,-240 351.25,-246 345.25,-252 339.25,-252"/>
<text text-anchor="middle" x="275" y="-231.5" font-family="sans" font-size="10.00">select_PCG_and_draw_plots</text>
</g>
<!-- 9&#45;&gt;1 -->
<g id="edge1" class="edge"><title>9&#45;&gt;1</title>
<path fill="none" stroke="grey" stroke-width="2" d="M274.506,-215.697C274.285,-207.983 274.02,-198.712 273.775,-190.112"/>
<polygon fill="grey" stroke="grey" points="277.273,-190 273.489,-180.104 270.276,-190.2 277.273,-190"/>
</g>
<!-- 10&#45;&gt;9 -->
<g id="edge10" class="edge"><title>10&#45;&gt;9</title>
<path fill="none" stroke="grey" stroke-width="2" d="M273.494,-287.697C273.715,-279.983 273.98,-270.712 274.225,-262.112"/>
<polygon fill="grey" stroke="grey" points="277.724,-262.2 274.511,-252.104 270.727,-262 277.724,-262.2"/>
</g>
<!-- 11&#45;&gt;7 -->
<g id="edge7" class="edge"><title>11&#45;&gt;7</title>
<path fill="none" stroke="grey" stroke-width="2" d="M123.27,-71.6966C133.498,-62.9655 146.061,-52.2405 157.178,-42.7503"/>
<polygon fill="grey" stroke="grey" points="159.63,-45.259 164.963,-36.1043 155.085,-39.935 159.63,-45.259"/>
</g>
</g>
</svg>
